<?xml version="1.0" encoding="UTF-8"?>
<svg width="24px" height="24px" viewBox="0 0 24 24" version="1.1" xmlns="http://www.w3.org/2000/svg" xmlns:xlink="http://www.w3.org/1999/xlink">
    <title>Rectangle</title>
    <g id="Symbols" stroke="none" stroke-width="1" fill="none" fill-rule="evenodd">
        <g id="miraca/icon/product-setting-copy" fill="#95A5A6" fill-rule="nonzero">
            <g id="2630085">
                <path d="M22,6.25635668 C22,6.00262874 21.8461473,5.77400766 21.6105592,5.67756914 L12.7386895,2.04692872 C12.5857398,1.98435709 12.4142602,1.98435709 12.2613105,2.04692872 L3.3894408,5.67756914 C3.15385267,5.77396855 3,6.00262874 3,6.25635668 L3,17.743647 C3,17.9973749 3.15381341,18.225996 3.3894408,18.3224345 L12.2613105,21.9530749 C12.4126114,22.0149817 12.5826777,22.0163114 12.7379044,21.9530358 C12.7454812,21.9505329 12.4095885,22.0877603 21.6105592,18.3224345 C21.8461866,18.2260351 22,17.9973749 22,17.743647 L22,6.25635668 Z M12.5,9.26315798 L9.23105278,7.92541571 L16.2955952,4.85545618 L19.7831711,6.28267587 L12.5,9.26315798 Z M4.25626064,7.24248552 L7.07660504,8.39665828 L7.07660504,11.6528857 C7.07660504,11.9984375 7.35785039,12.278602 7.70473536,12.278602 C8.05162033,12.278602 8.33286568,11.9984375 8.33286568,11.6528857 L8.33286568,8.9107624 L11.8718697,10.3590218 L11.8718697,20.4407578 L4.25626064,17.3242215 L4.25626064,7.24248552 Z M12.5,3.30215466 L14.6774923,4.19325283 L7.61294982,7.26321237 L5.21682893,6.28263677 L12.5,3.30215466 Z M13.1281303,10.3590218 L20.7437394,7.24248552 L20.7437394,17.3242215 L13.1281303,20.4407578 L13.1281303,10.3590218 Z" id="Shape"></path>
            </g>
        </g>
    </g>
</svg>