<svg xmlns="http://www.w3.org/2000/svg" xmlns:xlink="http://www.w3.org/1999/xlink" width="16" height="21" viewBox="0 0 16 21">
    <defs>
        <path id="a" d="M0 0h24v24H0z"/>
        <path id="b" d="M12.938 2.25l6.25 6.25V21c0 .339-.124.632-.372.879-.247.247-.54.371-.878.371H6.063c-.339 0-.632-.124-.88-.371a1.201 1.201 0 0 1-.37-.879V3.5c0-.339.123-.632.37-.879.248-.247.541-.371.88-.371h6.875zm5 6.758L12.43 3.5h-.117v5.625h5.624v-.117zM6.063 21h11.875V10.375h-6.875V3.5h-5V21z"/>
    </defs>
    <g fill="none" fill-rule="evenodd" transform="translate(-4 -2)">
        <use fill="#95A5A6" fill-rule="nonzero" xlink:href="#b"/>
    </g>
</svg>
